{
    "baseTastingNoteUrl": "https://www.spinn.com/tastes/",
    "staticMapUrl": "https://maps.googleapis.com/maps/api/staticmap?zoom=10&size=750x260&center=38.8694672,-104.7831759&markers=size:mid|color:red|38.9094672,-104.7831759&key=AIzaSyB1DfIUR1LkX3YVFXYgylijm5vBAS5xGO0&style=element:geometry|color:0xedf0e2&style=element:labels.text.fill|color:0x523735&style=element:labels.text.stroke|color:0xf5f1e6&style=feature:administrative|element:geometry.stroke|color:0xc9b2a6&style=feature:administrative.land_parcel|element:geometry.stroke|color:0xc9dcbe&style=feature:administrative.neighborhood|element:labels|visibility:off&style=feature:administrative.land_parcel|element:labels|visibility:off&style=feature:administrative.land_parcel|element:labels.text.fill|color:0xae9e90&style=feature:landscape.natural|element:geometry|color:0xd7e5b3|visibility:on&style=feature:poi|element:geometry|color:0xeae0c3&style=feature:poi|element:labels.text|visibility:off&style=feature:poi|element:labels.text.fill|color:0x93817c&style=feature:poi.park|element:geometry.fill|color:0xafd586&style=feature:poi.park|element:labels.text.fill|color:0x447530&style=feature:road|element:geometry|color:0xf5f1e6&style=feature:road.arterial|element:geometry|color:0xfdfcf8&style=feature:road.highway|element:geometry|color:0xf8c967&style=feature:road.highway|element:geometry.stroke|color:0xe9bc62&style=feature:road.highway.controlled_access|element:geometry|color:0xe98d58&style=feature:road.highway.controlled_access|element:geometry.stroke|color:0xdb8555&style=feature:road.local|element:labels.text.fill|color:0x806b63&style=feature:transit.line|element:geometry|color:0xdfd2ae&style=feature:transit.line|element:labels.text.fill|color:0x8f7d77&style=feature:transit.line|element:labels.text.stroke|color:0xebe3cd&style=feature:transit.station|element:geometry|color:0xdfd2ae&style=feature:water|element:geometry.fill|color:0x92d1eb&style=feature:water|element:labels.text.fill|color:0x92998d",
    "item": {
        "image": "https://s3-eu-west-1.amazonaws.com/spinn-dev-original-images/dev/vmajsuk-store/vmajsuk-store-tovar-perviy%3A151157unnamed+(1).jpg",
        "name": "Guatemala, Fair Trade & Organic",
        "description": "Pleasing soft caramel like mouthfeel balanced by elegant citrus acidity and a sweet, clean finish. There’s a reason we keep receiving \"best Peru ever” comments: the coop selects ripe cherry from their top member farms to build APU designated lots.",
        "tastingNotes": [
            {
                "label": "Dark Chocolate",
                "value": "dark_chocolate"
            },
            {
                "label": "Pecan",
                "value": "pecan"
            },
            {
                "label": "Smoke",
                "value": "smoke"
            },
            {
                "label": "Wood",
                "value": "wood"
            },
            {
                "label": "Berries",
                "value": "berries"
            }
        ]
    },
    "roaster": {
        "state": "ARKANSAS",
        "personal_photo": "https://s3-eu-west-1.amazonaws.com/spinn-dev-original-images/dev/vmajsuk-store/vmajsuk-store-tovar-perviy%3A40587unnamed.jpg",
        "biography": "Started in 2012 by Jon and Andrea Allen, Onyx Coffee Lab strives to find the best possible coffees and roast them to their full potential. In 2017 they won the US Roasters Competition and the US Brewer's Cup Competition.",
        "name": "Boulder Organic Coffee",
        "description": "Born in the shadows of the Rockies, in Boulder, CO, we set out in 1999 to be the first 100% Fair Trade USA & Organic certified roaster producing the highest quality, small batch, roast-to-order coffees in Colorado. To this day, this brand can be found across the State in restaurants and offices.",
        "logo": "https://cdn.schema.io/spinn-marketplace/59dcd04dcf89dda8130496ed/2918e3280e61bc0474ce85b4f3ce5195",
        "items": [
            {
                "tastingNotes": [
                    {
                        "label": "Dark Chocolate",
                        "value": "dark_chocolate"
                    },
                    {
                        "label": "Pecan",
                        "value": "pecan"
                    },
                    {
                        "label": "Smoke",
                        "value": "smoke"
                    },
                    {
                        "label": "Wood",
                        "value": "wood"
                    },
                    {
                        "label": "Berries",
                        "value": "berries"
                    }
                ],
                "name": "KENYA GATINA AA",
                "image": "https://cdn.schema.io/spinn-marketplace/59f222eaa1768cb63e940aa9/93aa84f9b4a6863cde92bcbad9ff2592/195159Kenya Gatina AA  (1)"
            },
            {
                "tastingNotes": [
                    {
                        "label": "Dark Chocolate",
                        "value": "dark_chocolate"
                    },
                    {
                        "label": "Pecan",
                        "value": "pecan"
                    },
                    {
                        "label": "Smoke",
                        "value": "smoke"
                    },
                    {
                        "label": "Wood",
                        "value": "wood"
                    },
                    {
                        "label": "Berries",
                        "value": "berries"
                    }
                ],
                "name": "NICARAGUA DANIEL'S CATURRA MICROLOT",
                "image": "https://cdn.schema.io/spinn-marketplace/59dcccf5cf89dda813048f9f/6db27713c4734ae318ca868766ea280e"
            },
            {
                "tastingNotes": [
                    {
                        "label": "Dark Chocolate",
                        "value": "dark_chocolate"
                    },
                    {
                        "label": "Pecan",
                        "value": "pecan"
                    },
                    {
                        "label": "Smoke",
                        "value": "smoke"
                    },
                    {
                        "label": "Wood",
                        "value": "wood"
                    },
                    {
                        "label": "Berries",
                        "value": "berries"
                    }
                ],
                "name": "VOLUME I SIGNATURE BLEND",
                "image": "https://cdn.schema.io/spinn-marketplace/59fcccde7afa4634269d91bd/06ef5492243002ff26a756ad5d45fb6a/517252Volume%20I%20House%20Blend"
            },
            {
                "tastingNotes": [
                    {
                        "label": "Dark Chocolate",
                        "value": "dark_chocolate"
                    },
                    {
                        "label": "Pecan",
                        "value": "pecan"
                    },
                    {
                        "label": "Smoke",
                        "value": "smoke"
                    },
                    {
                        "label": "Wood",
                        "value": "wood"
                    },
                    {
                        "label": "Berries",
                        "value": "berries"
                    }
                ],
                "name": "HONEY",
                "image": "https://cdn.schema.io/spinn-marketplace/59fa1749111898d23d883f02/aa0a7110ee4c061604f6220fb0038e5e/18883toro"
            }
        ]
    }
}